analysis – NRG TEAM
…
BEV and FCEV sales are analysed since they’re the no carbon ones.

Code

my_data2$region[my_data2$region == "Turkiye"] <- "Turkey"
top6_countries = c("USA", "Norway", "Denmark", "China", "Japan", "Turkey")
no_carbon = c("BEV", "FCEV")

top6_ev_sales <- my_data2 |>
  filter(region %in% top6_countries, parameter == "EV sales", powertrain %in% no_carbon)

top6_ev_sales |> mutate(value = as.numeric(format(value, scientific = FALSE)))

# A tibble: 276 × 8
   region  category   parameter mode  powertrain  year unit     value
   <chr>   <chr>      <chr>     <chr> <chr>      <dbl> <chr>    <dbl>
 1 China   Historical EV sales  Buses BEV         2011 Vehicles   440
 2 China   Historical EV sales  Vans  BEV         2011 Vehicles   150
 3 China   Historical EV sales  Cars  BEV         2011 Vehicles  4800
 4 Denmark Historical EV sales  Vans  BEV         2011 Vehicles    23
 5 Denmark Historical EV sales  Cars  BEV         2011 Vehicles   420
 6 Denmark Historical EV sales  Buses BEV         2011 Vehicles     1
 7 Japan   Historical EV sales  Cars  BEV         2011 Vehicles 13000
 8 Japan   Historical EV sales  Buses BEV         2011 Vehicles     2
 9 Japan   Historical EV sales  Vans  BEV         2011 Vehicles   850
10 Norway  Historical EV sales  Vans  BEV         2011 Vehicles    42
# ℹ 266 more rows
…
Code

top6_ev_sales

# A tibble: 276 × 8
   region  category   parameter mode  powertrain  year unit     value
   <chr>   <chr>      <chr>     <chr> <chr>      <dbl> <chr>    <dbl>
 1 China   Historical EV sales  Buses BEV         2011 Vehicles   440
 2 China   Historical EV sales  Vans  BEV         2011 Vehicles   150
 3 China   Historical EV sales  Cars  BEV         2011 Vehicles  4800
 4 Denmark Historical EV sales  Vans  BEV         2011 Vehicles    23
 5 Denmark Historical EV sales  Cars  BEV         2011 Vehicles   420
 6 Denmark Historical EV sales  Buses BEV         2011 Vehicles     1
 7 Japan   Historical EV sales  Cars  BEV         2011 Vehicles 13000
 8 Japan   Historical EV sales  Buses BEV         2011 Vehicles     2
 9 Japan   Historical EV sales  Vans  BEV         2011 Vehicles   850
10 Norway  Historical EV sales  Vans  BEV         2011 Vehicles    42
# ℹ 266 more rows
…
